%YAML 1.1
%TAG !u! tag:unity3d.com,2011:
--- !u!114 &11400000
MonoBehaviour:
  m_ObjectHideFlags: 0
  m_CorrespondingSourceObject: {fileID: 0}
  m_PrefabInstance: {fileID: 0}
  m_PrefabAsset: {fileID: 0}
  m_GameObject: {fileID: 0}
  m_Enabled: 1
  m_EditorHideFlags: 0
  m_Script: {fileID: 11500000, guid: bfcd341a87a93e2479c63dce1b37956d, type: 3}
  m_Name: Boss3
  m_EditorClassIdentifier: 
  _CharacterType: 2
  _CharacterHealth: 180
  _CharacterAttack: 25
  _DeliverDamageTimer: 3.24
  _DownDuration: 0.5
  _KnockbackForce: 36
  _KnockUpForce: 37.9
  _MobScore: 800
  _PowerRating: 1
  _SpeedRating: 1
  _GrowRating: 1
