%YAML 1.1
%TAG !u! tag:unity3d.com,2011:
--- !u!114 &11400000
MonoBehaviour:
  m_ObjectHideFlags: 0
  m_CorrespondingSourceObject: {fileID: 0}
  m_PrefabInstance: {fileID: 0}
  m_PrefabAsset: {fileID: 0}
  m_GameObject: {fileID: 0}
  m_Enabled: 1
  m_EditorHideFlags: 0
  m_Script: {fileID: 11500000, guid: bfcd341a87a93e2479c63dce1b37956d, type: 3}
  m_Name: R3-J1K 01
  m_EditorClassIdentifier: 
  _CharacterType: 0
  _CharacterHealth: 3
  _CharacterAttack: 0.8
  _DeliverDamageTimer: 0.088
  _DownDuration: 1.72
  _KnockbackForce: 30
  _KnockUpForce: 30
  _MobScore: 15
  _PowerRating: 0
  _SpeedRating: 2
  _GrowRating: 1
