%YAML 1.1
%TAG !u! tag:unity3d.com,2011:
--- !u!1001 &8674149372410608792
PrefabInstance:
  m_ObjectHideFlags: 0
  serializedVersion: 2
  m_Modification:
    m_TransformParent: {fileID: 0}
    m_Modifications:
    - target: {fileID: 2665054561997501071, guid: d8645b4da7f94dd43b899dd77a5e5402,
        type: 3}
      propertyPath: m_Name
      value: PowUpCanvas
      objectReference: {fileID: 0}
    - target: {fileID: 2665054561997501071, guid: d8645b4da7f94dd43b899dd77a5e5402,
        type: 3}
      propertyPath: m_IsActive
      value: 1
      objectReference: {fileID: 0}
    - target: {fileID: 2665054561997501300, guid: d8645b4da7f94dd43b899dd77a5e5402,
        type: 3}
      propertyPath: m_LocalPosition.x
      value: 0
      objectReference: {fileID: 0}
    - target: {fileID: 2665054561997501300, guid: d8645b4da7f94dd43b899dd77a5e5402,
        type: 3}
      propertyPath: m_LocalPosition.y
      value: 0
      objectReference: {fileID: 0}
    - target: {fileID: 2665054561997501300, guid: d8645b4da7f94dd43b899dd77a5e5402,
        type: 3}
      propertyPath: m_LocalPosition.z
      value: 0
      objectReference: {fileID: 0}
    - target: {fileID: 2665054561997501300, guid: d8645b4da7f94dd43b899dd77a5e5402,
        type: 3}
      propertyPath: m_LocalRotation.x
      value: 0
      objectReference: {fileID: 0}
    - target: {fileID: 2665054561997501300, guid: d8645b4da7f94dd43b899dd77a5e5402,
        type: 3}
      propertyPath: m_LocalRotation.y
      value: 0
      objectReference: {fileID: 0}
    - target: {fileID: 2665054561997501300, guid: d8645b4da7f94dd43b899dd77a5e5402,
        type: 3}
      propertyPath: m_LocalRotation.z
      value: 0
      objectReference: {fileID: 0}
    - target: {fileID: 2665054561997501300, guid: d8645b4da7f94dd43b899dd77a5e5402,
        type: 3}
      propertyPath: m_LocalRotation.w
      value: 1
      objectReference: {fileID: 0}
    - target: {fileID: 2665054561997501300, guid: d8645b4da7f94dd43b899dd77a5e5402,
        type: 3}
      propertyPath: m_RootOrder
      value: 0
      objectReference: {fileID: 0}
    - target: {fileID: 2665054561997501300, guid: d8645b4da7f94dd43b899dd77a5e5402,
        type: 3}
      propertyPath: m_LocalEulerAnglesHint.x
      value: 0
      objectReference: {fileID: 0}
    - target: {fileID: 2665054561997501300, guid: d8645b4da7f94dd43b899dd77a5e5402,
        type: 3}
      propertyPath: m_LocalEulerAnglesHint.y
      value: 0
      objectReference: {fileID: 0}
    - target: {fileID: 2665054561997501300, guid: d8645b4da7f94dd43b899dd77a5e5402,
        type: 3}
      propertyPath: m_LocalEulerAnglesHint.z
      value: 0
      objectReference: {fileID: 0}
    - target: {fileID: 2665054561997501300, guid: d8645b4da7f94dd43b899dd77a5e5402,
        type: 3}
      propertyPath: m_AnchoredPosition.x
      value: 0
      objectReference: {fileID: 0}
    - target: {fileID: 2665054561997501300, guid: d8645b4da7f94dd43b899dd77a5e5402,
        type: 3}
      propertyPath: m_AnchoredPosition.y
      value: 0.8
      objectReference: {fileID: 0}
    - target: {fileID: 2665054561997501300, guid: d8645b4da7f94dd43b899dd77a5e5402,
        type: 3}
      propertyPath: m_SizeDelta.x
      value: 1
      objectReference: {fileID: 0}
    - target: {fileID: 2665054561997501300, guid: d8645b4da7f94dd43b899dd77a5e5402,
        type: 3}
      propertyPath: m_SizeDelta.y
      value: 1
      objectReference: {fileID: 0}
    - target: {fileID: 2665054561997501300, guid: d8645b4da7f94dd43b899dd77a5e5402,
        type: 3}
      propertyPath: m_AnchorMin.x
      value: 0
      objectReference: {fileID: 0}
    - target: {fileID: 2665054561997501300, guid: d8645b4da7f94dd43b899dd77a5e5402,
        type: 3}
      propertyPath: m_AnchorMin.y
      value: 0
      objectReference: {fileID: 0}
    - target: {fileID: 2665054561997501300, guid: d8645b4da7f94dd43b899dd77a5e5402,
        type: 3}
      propertyPath: m_AnchorMax.x
      value: 0
      objectReference: {fileID: 0}
    - target: {fileID: 2665054561997501300, guid: d8645b4da7f94dd43b899dd77a5e5402,
        type: 3}
      propertyPath: m_AnchorMax.y
      value: 0
      objectReference: {fileID: 0}
    - target: {fileID: 2665054561997501300, guid: d8645b4da7f94dd43b899dd77a5e5402,
        type: 3}
      propertyPath: m_Pivot.x
      value: 0.5
      objectReference: {fileID: 0}
    - target: {fileID: 2665054561997501300, guid: d8645b4da7f94dd43b899dd77a5e5402,
        type: 3}
      propertyPath: m_Pivot.y
      value: 0.5
      objectReference: {fileID: 0}
    - target: {fileID: 2665054562858404255, guid: d8645b4da7f94dd43b899dd77a5e5402,
        type: 3}
      propertyPath: m_text
      value: POW UP
      objectReference: {fileID: 0}
    - target: {fileID: 2665054562858404255, guid: d8645b4da7f94dd43b899dd77a5e5402,
        type: 3}
      propertyPath: m_textInfo.characterCount
      value: 6
      objectReference: {fileID: 0}
    - target: {fileID: 2665054562858404255, guid: d8645b4da7f94dd43b899dd77a5e5402,
        type: 3}
      propertyPath: m_textInfo.lineCount
      value: 2
      objectReference: {fileID: 0}
    - target: {fileID: 4455597013424495623, guid: d8645b4da7f94dd43b899dd77a5e5402,
        type: 3}
      propertyPath: myTypes
      value: 3
      objectReference: {fileID: 0}
    m_RemovedComponents: []
  m_SourcePrefab: {fileID: 100100000, guid: d8645b4da7f94dd43b899dd77a5e5402, type: 3}
